%YAML 1.1
%TAG !u! tag:unity3d.com,2011:
--- !u!29 &1
OcclusionCullingSettings:
  m_ObjectHideFlags: 0
  serializedVersion: 2
  m_OcclusionBakeSettings:
    smallestOccluder: 5
    smallestHole: 0.25
    backfaceThreshold: 100
  m_SceneGUID: 00000000000000000000000000000000
  m_OcclusionCullingData: {fileID: 0}
--- !u!104 &2
RenderSettings:
  m_ObjectHideFlags: 0
  serializedVersion: 9
  m_Fog: 0
  m_FogColor: {r: 0.5, g: 0.5, b: 0.5, a: 1}
  m_FogMode: 3
  m_FogDensity: 0.01
  m_LinearFogStart: 0
  m_LinearFogEnd: 300
  m_AmbientSkyColor: {r: 0.212, g: 0.227, b: 0.259, a: 1}
  m_AmbientEquatorColor: {r: 0.114, g: 0.125, b: 0.133, a: 1}
  m_AmbientGroundColor: {r: 0.047, g: 0.043, b: 0.035, a: 1}
  m_AmbientIntensity: 1
  m_AmbientMode: 0
  m_SubtractiveShadowColor: {r: 0.42, g: 0.478, b: 0.627, a: 1}
  m_SkyboxMaterial: {fileID: 2100000, guid: 2bd8959f5fbd3644aa33af1a155fc147, type: 2}
  m_HaloStrength: 0.5
  m_FlareStrength: 1
  m_FlareFadeSpeed: 3
  m_HaloTexture: {fileID: 0}
  m_SpotCookie: {fileID: 10001, guid: 0000000000000000e000000000000000, type: 0}
  m_DefaultReflectionMode: 0
  m_DefaultReflectionResolution: 128
  m_ReflectionBounces: 1
  m_ReflectionIntensity: 1
  m_CustomReflection: {fileID: 0}
  m_Sun: {fileID: 0}
  m_IndirectSpecularColor: {r: 0, g: 0, b: 0, a: 1}
  m_UseRadianceAmbientProbe: 0
--- !u!157 &3
LightmapSettings:
  m_ObjectHideFlags: 0
  serializedVersion: 11
  m_GIWorkflowMode: 1
  m_GISettings:
    serializedVersion: 2
    m_BounceScale: 1
    m_IndirectOutputScale: 1
    m_AlbedoBoost: 1
    m_EnvironmentLightingMode: 0
    m_EnableBakedLightmaps: 1
    m_EnableRealtimeLightmaps: 1
  m_LightmapEditorSettings:
    serializedVersion: 12
    m_Resolution: 2
    m_BakeResolution: 40
    m_AtlasSize: 1024
    m_AO: 0
    m_AOMaxDistance: 1
    m_CompAOExponent: 1
    m_CompAOExponentDirect: 0
    m_ExtractAmbientOcclusion: 0
    m_Padding: 2
    m_LightmapParameters: {fileID: 0}
    m_LightmapsBakeMode: 1
    m_TextureCompression: 1
    m_FinalGather: 0
    m_FinalGatherFiltering: 1
    m_FinalGatherRayCount: 256
    m_ReflectionCompression: 2
    m_MixedBakeMode: 2
    m_BakeBackend: 1
    m_PVRSampling: 1
    m_PVRDirectSampleCount: 32
    m_PVRSampleCount: 512
    m_PVRBounces: 2
    m_PVREnvironmentSampleCount: 256
    m_PVREnvironmentReferencePointCount: 2048
    m_PVRFilteringMode: 1
    m_PVRDenoiserTypeDirect: 1
    m_PVRDenoiserTypeIndirect: 1
    m_PVRDenoiserTypeAO: 1
    m_PVRFilterTypeDirect: 0
    m_PVRFilterTypeIndirect: 0
    m_PVRFilterTypeAO: 0
    m_PVREnvironmentMIS: 1
    m_PVRCulling: 1
    m_PVRFilteringGaussRadiusDirect: 1
    m_PVRFilteringGaussRadiusIndirect: 5
    m_PVRFilteringGaussRadiusAO: 2
    m_PVRFilteringAtrousPositionSigmaDirect: 0.5
    m_PVRFilteringAtrousPositionSigmaIndirect: 2
    m_PVRFilteringAtrousPositionSigmaAO: 1
    m_ExportTrainingData: 0
    m_TrainingDataDestination: TrainingData
  m_LightingDataAsset: {fileID: 0}
  m_UseShadowmask: 1
--- !u!196 &4
NavMeshSettings:
  serializedVersion: 2
  m_ObjectHideFlags: 0
  m_BuildSettings:
    serializedVersion: 2
    agentTypeID: 0
    agentRadius: 0.5
    agentHeight: 2
    agentSlope: 14.7
    agentClimb: 0.4
    ledgeDropHeight: 0
    maxJumpAcrossDistance: 0
    minRegionArea: 2
    manualCellSize: 0
    cellSize: 0.16666667
    manualTileSize: 0
    tileSize: 256
    accuratePlacement: 0
    debug:
      m_Flags: 0
  m_NavMeshData: {fileID: 23800000, guid: 0c045c1c35871ea449959694d516e62e, type: 2}
--- !u!4 &136527855 stripped
Transform:
  m_CorrespondingSourceObject: {fileID: 416864, guid: d66c89601ce96d4419ce36a4dce3c401,
    type: 3}
  m_PrefabInstance: {fileID: 1286469799}
  m_PrefabAsset: {fileID: 0}
--- !u!1 &225519275
GameObject:
  m_ObjectHideFlags: 0
  m_CorrespondingSourceObject: {fileID: 0}
  m_PrefabInstance: {fileID: 0}
  m_PrefabAsset: {fileID: 0}
  serializedVersion: 6
  m_Component:
  - component: {fileID: 225519277}
  - component: {fileID: 225519276}
  m_Layer: 0
  m_Name: Directional Light
  m_TagString: Untagged
  m_Icon: {fileID: 0}
  m_NavMeshLayer: 0
  m_StaticEditorFlags: 0
  m_IsActive: 1
--- !u!108 &225519276
Light:
  m_ObjectHideFlags: 0
  m_CorrespondingSourceObject: {fileID: 0}
  m_PrefabInstance: {fileID: 0}
  m_PrefabAsset: {fileID: 0}
  m_GameObject: {fileID: 225519275}
  m_Enabled: 1
  serializedVersion: 9
  m_Type: 1
  m_Color: {r: 1, g: 0.95686275, b: 0.8392157, a: 1}
  m_Intensity: 1
  m_Range: 10
  m_SpotAngle: 30
  m_InnerSpotAngle: 21.80208
  m_CookieSize: 10
  m_Shadows:
    m_Type: 2
    m_Resolution: -1
    m_CustomResolution: -1
    m_Strength: 1
    m_Bias: 0.05
    m_NormalBias: 0.4
    m_NearPlane: 0.2
    m_CullingMatrixOverride:
      e00: 1
      e01: 0
      e02: 0
      e03: 0
      e10: 0
      e11: 1
      e12: 0
      e13: 0
      e20: 0
      e21: 0
      e22: 1
      e23: 0
      e30: 0
      e31: 0
      e32: 0
      e33: 1
    m_UseCullingMatrixOverride: 0
  m_Cookie: {fileID: 0}
  m_DrawHalo: 0
  m_Flare: {fileID: 0}
  m_RenderMode: 0
  m_CullingMask:
    serializedVersion: 2
    m_Bits: 4294967295
  m_RenderingLayerMask: 1
  m_Lightmapping: 4
  m_LightShadowCasterMode: 0
  m_AreaSize: {x: 1, y: 1}
  m_BounceIntensity: 1
  m_ColorTemperature: 6570
  m_UseColorTemperature: 0
  m_BoundingSphereOverride: {x: 0, y: 0, z: 0, w: 0}
  m_UseBoundingSphereOverride: 0
  m_ShadowRadius: 0
  m_ShadowAngle: 0
--- !u!4 &225519277
Transform:
  m_ObjectHideFlags: 0
  m_CorrespondingSourceObject: {fileID: 0}
  m_PrefabInstance: {fileID: 0}
  m_PrefabAsset: {fileID: 0}
  m_GameObject: {fileID: 225519275}
  m_LocalRotation: {x: 0.40821788, y: -0.23456968, z: 0.10938163, w: 0.8754261}
  m_LocalPosition: {x: 5.57, y: 8.72, z: -5.56}
  m_LocalScale: {x: 1, y: 1, z: 1}
  m_Children: []
  m_Father: {fileID: 0}
  m_RootOrder: 1
  m_LocalEulerAnglesHint: {x: 50, y: -30, z: 0}
--- !u!4 &229732101 stripped
Transform:
  m_CorrespondingSourceObject: {fileID: 416864, guid: d66c89601ce96d4419ce36a4dce3c401,
    type: 3}
  m_PrefabInstance: {fileID: 564119472}
  m_PrefabAsset: {fileID: 0}
--- !u!4 &483215367 stripped
Transform:
  m_CorrespondingSourceObject: {fileID: 416864, guid: d66c89601ce96d4419ce36a4dce3c401,
    type: 3}
  m_PrefabInstance: {fileID: 528399895}
  m_PrefabAsset: {fileID: 0}
--- !u!1 &492775567
GameObject:
  m_ObjectHideFlags: 0
  m_CorrespondingSourceObject: {fileID: 0}
  m_PrefabInstance: {fileID: 0}
  m_PrefabAsset: {fileID: 0}
  serializedVersion: 6
  m_Component:
  - component: {fileID: 492775570}
  - component: {fileID: 492775569}
  - component: {fileID: 492775568}
  m_Layer: 0
  m_Name: Sandbox2 - Terrain
  m_TagString: Untagged
  m_Icon: {fileID: 0}
  m_NavMeshLayer: 0
  m_StaticEditorFlags: 4294967295
  m_IsActive: 1
--- !u!154 &492775568
TerrainCollider:
  m_ObjectHideFlags: 0
  m_CorrespondingSourceObject: {fileID: 0}
  m_PrefabInstance: {fileID: 0}
  m_PrefabAsset: {fileID: 0}
  m_GameObject: {fileID: 492775567}
  m_Material: {fileID: 0}
  m_Enabled: 1
  m_TerrainData: {fileID: 15600000, guid: a013b6ad6dcb7d544a15bcac4b0986a1, type: 2}
  m_EnableTreeColliders: 1
--- !u!218 &492775569
Terrain:
  m_ObjectHideFlags: 0
  m_CorrespondingSourceObject: {fileID: 0}
  m_PrefabInstance: {fileID: 0}
  m_PrefabAsset: {fileID: 0}
  m_GameObject: {fileID: 492775567}
  m_Enabled: 1
  serializedVersion: 5
  m_TerrainData: {fileID: 15600000, guid: a013b6ad6dcb7d544a15bcac4b0986a1, type: 2}
  m_TreeDistance: 5000
  m_TreeBillboardDistance: 50
  m_TreeCrossFadeLength: 5
  m_TreeMaximumFullLODCount: 50
  m_DetailObjectDistance: 80
  m_DetailObjectDensity: 1
  m_HeightmapPixelError: 5
  m_SplatMapDistance: 1000
  m_HeightmapMaximumLOD: 0
  m_ShadowCastingMode: 2
  m_DrawHeightmap: 1
  m_DrawInstanced: 0
  m_DrawTreesAndFoliage: 1
  m_ReflectionProbeUsage: 1
  m_MaterialTemplate: {fileID: 10652, guid: 0000000000000000f000000000000000, type: 0}
  m_BakeLightProbesForTrees: 1
  m_PreserveTreePrototypeLayers: 0
  m_DeringLightProbesForTrees: 1
  m_ScaleInLightmap: 0.0256
  m_LightmapParameters: {fileID: 15203, guid: 0000000000000000f000000000000000, type: 0}
  m_GroupingID: 0
  m_AllowAutoConnect: 1
--- !u!4 &492775570
Transform:
  m_ObjectHideFlags: 0
  m_CorrespondingSourceObject: {fileID: 0}
  m_PrefabInstance: {fileID: 0}
  m_PrefabAsset: {fileID: 0}
  m_GameObject: {fileID: 492775567}
  m_LocalRotation: {x: -0, y: -0, z: -0, w: 1}
  m_LocalPosition: {x: -50, y: 0, z: -50}
  m_LocalScale: {x: 1, y: 1, z: 1}
  m_Children: []
  m_Father: {fileID: 0}
  m_RootOrder: 2
  m_LocalEulerAnglesHint: {x: 0, y: 0, z: 0}
--- !u!1001 &528399895
PrefabInstance:
  m_ObjectHideFlags: 0
  serializedVersion: 2
  m_Modification:
    m_TransformParent: {fileID: 1623527702}
    m_Modifications:
    - target: {fileID: 130724, guid: d66c89601ce96d4419ce36a4dce3c401, type: 3}
      propertyPath: m_Name
      value: SM_Bld_Fence_02 (4)
      objectReference: {fileID: 0}
    - target: {fileID: 416864, guid: d66c89601ce96d4419ce36a4dce3c401, type: 3}
      propertyPath: m_LocalPosition.x
      value: 5.88
      objectReference: {fileID: 0}
    - target: {fileID: 416864, guid: d66c89601ce96d4419ce36a4dce3c401, type: 3}
      propertyPath: m_LocalPosition.y
      value: 0.05
      objectReference: {fileID: 0}
    - target: {fileID: 416864, guid: d66c89601ce96d4419ce36a4dce3c401, type: 3}
      propertyPath: m_LocalPosition.z
      value: -29.89
      objectReference: {fileID: 0}
    - target: {fileID: 416864, guid: d66c89601ce96d4419ce36a4dce3c401, type: 3}
      propertyPath: m_LocalRotation.x
      value: -0
      objectReference: {fileID: 0}
    - target: {fileID: 416864, guid: d66c89601ce96d4419ce36a4dce3c401, type: 3}
      propertyPath: m_LocalRotation.y
      value: -0.85114247
      objectReference: {fileID: 0}
    - target: {fileID: 416864, guid: d66c89601ce96d4419ce36a4dce3c401, type: 3}
      propertyPath: m_LocalRotation.z
      value: -0
      objectReference: {fileID: 0}
    - target: {fileID: 416864, guid: d66c89601ce96d4419ce36a4dce3c401, type: 3}
      propertyPath: m_LocalRotation.w
      value: 0.5249348
      objectReference: {fileID: 0}
    - target: {fileID: 416864, guid: d66c89601ce96d4419ce36a4dce3c401, type: 3}
      propertyPath: m_RootOrder
      value: 4
      objectReference: {fileID: 0}
    - target: {fileID: 416864, guid: d66c89601ce96d4419ce36a4dce3c401, type: 3}
      propertyPath: m_LocalEulerAnglesHint.x
      value: 0
      objectReference: {fileID: 0}
    - target: {fileID: 416864, guid: d66c89601ce96d4419ce36a4dce3c401, type: 3}
      propertyPath: m_LocalEulerAnglesHint.y
      value: -116.672005
      objectReference: {fileID: 0}
    - target: {fileID: 416864, guid: d66c89601ce96d4419ce36a4dce3c401, type: 3}
      propertyPath: m_LocalEulerAnglesHint.z
      value: 0
      objectReference: {fileID: 0}
    m_RemovedComponents: []
  m_SourcePrefab: {fileID: 100100000, guid: d66c89601ce96d4419ce36a4dce3c401, type: 3}
--- !u!1001 &544108986
PrefabInstance:
  m_ObjectHideFlags: 0
  serializedVersion: 2
  m_Modification:
    m_TransformParent: {fileID: 0}
    m_Modifications:
    - target: {fileID: 2479773124529082132, guid: e2fbc4554e8cbc9418d7e6ee93323c6e,
        type: 3}
      propertyPath: m_Name
      value: Core
      objectReference: {fileID: 0}
    - target: {fileID: 2479773124529082135, guid: e2fbc4554e8cbc9418d7e6ee93323c6e,
        type: 3}
      propertyPath: m_LocalPosition.x
      value: 0
      objectReference: {fileID: 0}
    - target: {fileID: 2479773124529082135, guid: e2fbc4554e8cbc9418d7e6ee93323c6e,
        type: 3}
      propertyPath: m_LocalPosition.y
      value: 0
      objectReference: {fileID: 0}
    - target: {fileID: 2479773124529082135, guid: e2fbc4554e8cbc9418d7e6ee93323c6e,
        type: 3}
      propertyPath: m_LocalPosition.z
      value: 0
      objectReference: {fileID: 0}
    - target: {fileID: 2479773124529082135, guid: e2fbc4554e8cbc9418d7e6ee93323c6e,
        type: 3}
      propertyPath: m_LocalRotation.x
      value: 0
      objectReference: {fileID: 0}
    - target: {fileID: 2479773124529082135, guid: e2fbc4554e8cbc9418d7e6ee93323c6e,
        type: 3}
      propertyPath: m_LocalRotation.y
      value: 0
      objectReference: {fileID: 0}
    - target: {fileID: 2479773124529082135, guid: e2fbc4554e8cbc9418d7e6ee93323c6e,
        type: 3}
      propertyPath: m_LocalRotation.z
      value: 0
      objectReference: {fileID: 0}
    - target: {fileID: 2479773124529082135, guid: e2fbc4554e8cbc9418d7e6ee93323c6e,
        type: 3}
      propertyPath: m_LocalRotation.w
      value: 1
      objectReference: {fileID: 0}
    - target: {fileID: 2479773124529082135, guid: e2fbc4554e8cbc9418d7e6ee93323c6e,
        type: 3}
      propertyPath: m_RootOrder
      value: 6
      objectReference: {fileID: 0}
    - target: {fileID: 2479773124529082135, guid: e2fbc4554e8cbc9418d7e6ee93323c6e,
        type: 3}
      propertyPath: m_LocalEulerAnglesHint.x
      value: 0
      objectReference: {fileID: 0}
    - target: {fileID: 2479773124529082135, guid: e2fbc4554e8cbc9418d7e6ee93323c6e,
        type: 3}
      propertyPath: m_LocalEulerAnglesHint.y
      value: 0
      objectReference: {fileID: 0}
    - target: {fileID: 2479773124529082135, guid: e2fbc4554e8cbc9418d7e6ee93323c6e,
        type: 3}
      propertyPath: m_LocalEulerAnglesHint.z
      value: 0
      objectReference: {fileID: 0}
    - target: {fileID: 2479773125180852637, guid: e2fbc4554e8cbc9418d7e6ee93323c6e,
        type: 3}
      propertyPath: m_LocalRotation.x
      value: 0.14097439
      objectReference: {fileID: 0}
    - target: {fileID: 2479773125180852637, guid: e2fbc4554e8cbc9418d7e6ee93323c6e,
        type: 3}
      propertyPath: m_LocalRotation.y
      value: 0.69291145
      objectReference: {fileID: 0}
    - target: {fileID: 2479773125180852637, guid: e2fbc4554e8cbc9418d7e6ee93323c6e,
        type: 3}
      propertyPath: m_LocalRotation.z
      value: -0.14097439
      objectReference: {fileID: 0}
    - target: {fileID: 2479773125180852637, guid: e2fbc4554e8cbc9418d7e6ee93323c6e,
        type: 3}
      propertyPath: m_LocalRotation.w
      value: 0.69291145
      objectReference: {fileID: 0}
    - target: {fileID: 2479773125180852637, guid: e2fbc4554e8cbc9418d7e6ee93323c6e,
        type: 3}
      propertyPath: m_LocalPosition.x
      value: -9.2050495
      objectReference: {fileID: 0}
    - target: {fileID: 2479773125180852637, guid: e2fbc4554e8cbc9418d7e6ee93323c6e,
        type: 3}
      propertyPath: m_LocalPosition.y
      value: 3.9073107
      objectReference: {fileID: 0}
    - target: {fileID: 2479773125180852637, guid: e2fbc4554e8cbc9418d7e6ee93323c6e,
        type: 3}
      propertyPath: m_LocalPosition.z
      value: 0.00000078231096
      objectReference: {fileID: 0}
    - target: {fileID: 2479773125590808077, guid: e2fbc4554e8cbc9418d7e6ee93323c6e,
        type: 3}
      propertyPath: m_LocalPosition.x
      value: -9.2050495
      objectReference: {fileID: 0}
    - target: {fileID: 2479773125590808077, guid: e2fbc4554e8cbc9418d7e6ee93323c6e,
        type: 3}
      propertyPath: m_LocalPosition.y
      value: 3.9073107
      objectReference: {fileID: 0}
    - target: {fileID: 2479773125590808077, guid: e2fbc4554e8cbc9418d7e6ee93323c6e,
        type: 3}
      propertyPath: m_LocalPosition.z
      value: 0.00000078231096
      objectReference: {fileID: 0}
    m_RemovedComponents: []
  m_SourcePrefab: {fileID: 100100000, guid: e2fbc4554e8cbc9418d7e6ee93323c6e, type: 3}
--- !u!1001 &564119472
PrefabInstance:
  m_ObjectHideFlags: 0
  serializedVersion: 2
  m_Modification:
    m_TransformParent: {fileID: 1623527702}
    m_Modifications:
    - target: {fileID: 130724, guid: d66c89601ce96d4419ce36a4dce3c401, type: 3}
      propertyPath: m_Name
      value: SM_Bld_Fence_02 (2)
      objectReference: {fileID: 0}
    - target: {fileID: 416864, guid: d66c89601ce96d4419ce36a4dce3c401, type: 3}
      propertyPath: m_LocalPosition.x
      value: 3.44
      objectReference: {fileID: 0}
    - target: {fileID: 416864, guid: d66c89601ce96d4419ce36a4dce3c401, type: 3}
      propertyPath: m_LocalPosition.y
      value: -0.1
      objectReference: {fileID: 0}
    - target: {fileID: 416864, guid: d66c89601ce96d4419ce36a4dce3c401, type: 3}
      propertyPath: m_LocalPosition.z
      value: 25.54
      objectReference: {fileID: 0}
    - target: {fileID: 416864, guid: d66c89601ce96d4419ce36a4dce3c401, type: 3}
      propertyPath: m_LocalRotation.x
      value: -0
      objectReference: {fileID: 0}
    - target: {fileID: 416864, guid: d66c89601ce96d4419ce36a4dce3c401, type: 3}
      propertyPath: m_LocalRotation.y
      value: -0.6907013
      objectReference: {fileID: 0}
    - target: {fileID: 416864, guid: d66c89601ce96d4419ce36a4dce3c401, type: 3}
      propertyPath: m_LocalRotation.z
      value: -0
      objectReference: {fileID: 0}
    - target: {fileID: 416864, guid: d66c89601ce96d4419ce36a4dce3c401, type: 3}
      propertyPath: m_LocalRotation.w
      value: 0.72314024
      objectReference: {fileID: 0}
    - target: {fileID: 416864, guid: d66c89601ce96d4419ce36a4dce3c401, type: 3}
      propertyPath: m_RootOrder
      value: 2
      objectReference: {fileID: 0}
    - target: {fileID: 416864, guid: d66c89601ce96d4419ce36a4dce3c401, type: 3}
      propertyPath: m_LocalEulerAnglesHint.x
      value: 0
      objectReference: {fileID: 0}
    - target: {fileID: 416864, guid: d66c89601ce96d4419ce36a4dce3c401, type: 3}
      propertyPath: m_LocalEulerAnglesHint.y
      value: -87.371
      objectReference: {fileID: 0}
    - target: {fileID: 416864, guid: d66c89601ce96d4419ce36a4dce3c401, type: 3}
      propertyPath: m_LocalEulerAnglesHint.z
      value: 0
      objectReference: {fileID: 0}
    m_RemovedComponents: []
  m_SourcePrefab: {fileID: 100100000, guid: d66c89601ce96d4419ce36a4dce3c401, type: 3}
--- !u!1001 &741889639
PrefabInstance:
  m_ObjectHideFlags: 0
  serializedVersion: 2
  m_Modification:
    m_TransformParent: {fileID: 1623527702}
    m_Modifications:
    - target: {fileID: 130724, guid: d66c89601ce96d4419ce36a4dce3c401, type: 3}
      propertyPath: m_Name
      value: SM_Bld_Fence_02 (1)
      objectReference: {fileID: 0}
    - target: {fileID: 416864, guid: d66c89601ce96d4419ce36a4dce3c401, type: 3}
      propertyPath: m_LocalPosition.x
      value: -1.6800007
      objectReference: {fileID: 0}
    - target: {fileID: 416864, guid: d66c89601ce96d4419ce36a4dce3c401, type: 3}
      propertyPath: m_LocalPosition.y
      value: -0.042
      objectReference: {fileID: 0}
    - target: {fileID: 416864, guid: d66c89601ce96d4419ce36a4dce3c401, type: 3}
      propertyPath: m_LocalPosition.z
      value: 24.699997
      objectReference: {fileID: 0}
    - target: {fileID: 416864, guid: d66c89601ce96d4419ce36a4dce3c401, type: 3}
      propertyPath: m_LocalRotation.x
      value: -0
      objectReference: {fileID: 0}
    - target: {fileID: 416864, guid: d66c89601ce96d4419ce36a4dce3c401, type: 3}
      propertyPath: m_LocalRotation.y
      value: -0.6334842
      objectReference: {fileID: 0}
    - target: {fileID: 416864, guid: d66c89601ce96d4419ce36a4dce3c401, type: 3}
      propertyPath: m_LocalRotation.z
      value: -0
      objectReference: {fileID: 0}
    - target: {fileID: 416864, guid: d66c89601ce96d4419ce36a4dce3c401, type: 3}
      propertyPath: m_LocalRotation.w
      value: 0.77375567
      objectReference: {fileID: 0}
    - target: {fileID: 416864, guid: d66c89601ce96d4419ce36a4dce3c401, type: 3}
      propertyPath: m_RootOrder
      value: 1
      objectReference: {fileID: 0}
    - target: {fileID: 416864, guid: d66c89601ce96d4419ce36a4dce3c401, type: 3}
      propertyPath: m_LocalEulerAnglesHint.x
      value: 0
      objectReference: {fileID: 0}
    - target: {fileID: 416864, guid: d66c89601ce96d4419ce36a4dce3c401, type: 3}
      propertyPath: m_LocalEulerAnglesHint.y
      value: -78.615005
      objectReference: {fileID: 0}
    - target: {fileID: 416864, guid: d66c89601ce96d4419ce36a4dce3c401, type: 3}
      propertyPath: m_LocalEulerAnglesHint.z
      value: 0
      objectReference: {fileID: 0}
    m_RemovedComponents: []
  m_SourcePrefab: {fileID: 100100000, guid: d66c89601ce96d4419ce36a4dce3c401, type: 3}
--- !u!4 &1138835704 stripped
Transform:
  m_CorrespondingSourceObject: {fileID: 416864, guid: d66c89601ce96d4419ce36a4dce3c401,
    type: 3}
  m_PrefabInstance: {fileID: 741889639}
  m_PrefabAsset: {fileID: 0}
--- !u!1001 &1176955254
PrefabInstance:
  m_ObjectHideFlags: 0
  serializedVersion: 2
  m_Modification:
    m_TransformParent: {fileID: 1623527702}
    m_Modifications:
    - target: {fileID: 130724, guid: d66c89601ce96d4419ce36a4dce3c401, type: 3}
      propertyPath: m_Name
      value: SM_Bld_Fence_02
      objectReference: {fileID: 0}
    - target: {fileID: 416864, guid: d66c89601ce96d4419ce36a4dce3c401, type: 3}
      propertyPath: m_LocalPosition.x
      value: -1.4700006
      objectReference: {fileID: 0}
    - target: {fileID: 416864, guid: d66c89601ce96d4419ce36a4dce3c401, type: 3}
      propertyPath: m_LocalPosition.y
      value: -0.042000055
      objectReference: {fileID: 0}
    - target: {fileID: 416864, guid: d66c89601ce96d4419ce36a4dce3c401, type: 3}
      propertyPath: m_LocalPosition.z
      value: 26.189999
      objectReference: {fileID: 0}
    - target: {fileID: 416864, guid: d66c89601ce96d4419ce36a4dce3c401, type: 3}
      propertyPath: m_LocalRotation.x
      value: -0
      objectReference: {fileID: 0}
    - target: {fileID: 416864, guid: d66c89601ce96d4419ce36a4dce3c401, type: 3}
      propertyPath: m_LocalRotation.y
      value: -0.6907013
      objectReference: {fileID: 0}
    - target: {fileID: 416864, guid: d66c89601ce96d4419ce36a4dce3c401, type: 3}
      propertyPath: m_LocalRotation.z
      value: -0
      objectReference: {fileID: 0}
    - target: {fileID: 416864, guid: d66c89601ce96d4419ce36a4dce3c401, type: 3}
      propertyPath: m_LocalRotation.w
      value: 0.72314024
      objectReference: {fileID: 0}
    - target: {fileID: 416864, guid: d66c89601ce96d4419ce36a4dce3c401, type: 3}
      propertyPath: m_RootOrder
      value: 0
      objectReference: {fileID: 0}
    - target: {fileID: 416864, guid: d66c89601ce96d4419ce36a4dce3c401, type: 3}
      propertyPath: m_LocalEulerAnglesHint.x
      value: 0
      objectReference: {fileID: 0}
    - target: {fileID: 416864, guid: d66c89601ce96d4419ce36a4dce3c401, type: 3}
      propertyPath: m_LocalEulerAnglesHint.y
      value: -87.371
      objectReference: {fileID: 0}
    - target: {fileID: 416864, guid: d66c89601ce96d4419ce36a4dce3c401, type: 3}
      propertyPath: m_LocalEulerAnglesHint.z
      value: 0
      objectReference: {fileID: 0}
    m_RemovedComponents: []
  m_SourcePrefab: {fileID: 100100000, guid: d66c89601ce96d4419ce36a4dce3c401, type: 3}
--- !u!1001 &1207616566
PrefabInstance:
  m_ObjectHideFlags: 0
  serializedVersion: 2
  m_Modification:
    m_TransformParent: {fileID: 1623527702}
    m_Modifications:
    - target: {fileID: 130724, guid: d66c89601ce96d4419ce36a4dce3c401, type: 3}
      propertyPath: m_Name
      value: SM_Bld_Fence_02 (6)
      objectReference: {fileID: 0}
    - target: {fileID: 416864, guid: d66c89601ce96d4419ce36a4dce3c401, type: 3}
      propertyPath: m_LocalPosition.x
      value: 10.47992
      objectReference: {fileID: 0}
    - target: {fileID: 416864, guid: d66c89601ce96d4419ce36a4dce3c401, type: 3}
      propertyPath: m_LocalPosition.y
      value: 0.03999996
      objectReference: {fileID: 0}
    - target: {fileID: 416864, guid: d66c89601ce96d4419ce36a4dce3c401, type: 3}
      propertyPath: m_LocalPosition.z
      value: -28.053894
      objectReference: {fileID: 0}
    - target: {fileID: 416864, guid: d66c89601ce96d4419ce36a4dce3c401, type: 3}
      propertyPath: m_LocalRotation.x
      value: -0
      objectReference: {fileID: 0}
    - target: {fileID: 416864, guid: d66c89601ce96d4419ce36a4dce3c401, type: 3}
      propertyPath: m_LocalRotation.y
      value: -0.85114247
      objectReference: {fileID: 0}
    - target: {fileID: 416864, guid: d66c89601ce96d4419ce36a4dce3c401, type: 3}
      propertyPath: m_LocalRotation.z
      value: -0
      objectReference: {fileID: 0}
    - target: {fileID: 416864, guid: d66c89601ce96d4419ce36a4dce3c401, type: 3}
      propertyPath: m_LocalRotation.w
      value: 0.5249348
      objectReference: {fileID: 0}
    - target: {fileID: 416864, guid: d66c89601ce96d4419ce36a4dce3c401, type: 3}
      propertyPath: m_RootOrder
      value: 6
      objectReference: {fileID: 0}
    - target: {fileID: 416864, guid: d66c89601ce96d4419ce36a4dce3c401, type: 3}
      propertyPath: m_LocalEulerAnglesHint.x
      value: 0
      objectReference: {fileID: 0}
    - target: {fileID: 416864, guid: d66c89601ce96d4419ce36a4dce3c401, type: 3}
      propertyPath: m_LocalEulerAnglesHint.y
      value: -116.672005
      objectReference: {fileID: 0}
    - target: {fileID: 416864, guid: d66c89601ce96d4419ce36a4dce3c401, type: 3}
      propertyPath: m_LocalEulerAnglesHint.z
      value: 0
      objectReference: {fileID: 0}
    m_RemovedComponents: []
  m_SourcePrefab: {fileID: 100100000, guid: d66c89601ce96d4419ce36a4dce3c401, type: 3}
--- !u!1001 &1286469799
PrefabInstance:
  m_ObjectHideFlags: 0
  serializedVersion: 2
  m_Modification:
    m_TransformParent: {fileID: 1623527702}
    m_Modifications:
    - target: {fileID: 130724, guid: d66c89601ce96d4419ce36a4dce3c401, type: 3}
      propertyPath: m_Name
      value: SM_Bld_Fence_02 (7)
      objectReference: {fileID: 0}
    - target: {fileID: 416864, guid: d66c89601ce96d4419ce36a4dce3c401, type: 3}
      propertyPath: m_LocalPosition.x
      value: 11.362897
      objectReference: {fileID: 0}
    - target: {fileID: 416864, guid: d66c89601ce96d4419ce36a4dce3c401, type: 3}
      propertyPath: m_LocalPosition.y
      value: 0.03999996
      objectReference: {fileID: 0}
    - target: {fileID: 416864, guid: d66c89601ce96d4419ce36a4dce3c401, type: 3}
      propertyPath: m_LocalPosition.z
      value: -29.19817
      objectReference: {fileID: 0}
    - target: {fileID: 416864, guid: d66c89601ce96d4419ce36a4dce3c401, type: 3}
      propertyPath: m_LocalRotation.x
      value: -0
      objectReference: {fileID: 0}
    - target: {fileID: 416864, guid: d66c89601ce96d4419ce36a4dce3c401, type: 3}
      propertyPath: m_LocalRotation.y
      value: -0.89474255
      objectReference: {fileID: 0}
    - target: {fileID: 416864, guid: d66c89601ce96d4419ce36a4dce3c401, type: 3}
      propertyPath: m_LocalRotation.z
      value: -0
      objectReference: {fileID: 0}
    - target: {fileID: 416864, guid: d66c89601ce96d4419ce36a4dce3c401, type: 3}
      propertyPath: m_LocalRotation.w
      value: 0.44658232
      objectReference: {fileID: 0}
    - target: {fileID: 416864, guid: d66c89601ce96d4419ce36a4dce3c401, type: 3}
      propertyPath: m_RootOrder
      value: 7
      objectReference: {fileID: 0}
    - target: {fileID: 416864, guid: d66c89601ce96d4419ce36a4dce3c401, type: 3}
      propertyPath: m_LocalEulerAnglesHint.x
      value: 0
      objectReference: {fileID: 0}
    - target: {fileID: 416864, guid: d66c89601ce96d4419ce36a4dce3c401, type: 3}
      propertyPath: m_LocalEulerAnglesHint.y
      value: -126.951004
      objectReference: {fileID: 0}
    - target: {fileID: 416864, guid: d66c89601ce96d4419ce36a4dce3c401, type: 3}
      propertyPath: m_LocalEulerAnglesHint.z
      value: 0
      objectReference: {fileID: 0}
    m_RemovedComponents: []
  m_SourcePrefab: {fileID: 100100000, guid: d66c89601ce96d4419ce36a4dce3c401, type: 3}
--- !u!4 &1419817162 stripped
Transform:
  m_CorrespondingSourceObject: {fileID: 416864, guid: d66c89601ce96d4419ce36a4dce3c401,
    type: 3}
  m_PrefabInstance: {fileID: 1207616566}
  m_PrefabAsset: {fileID: 0}
--- !u!1001 &1497356423
PrefabInstance:
  m_ObjectHideFlags: 0
  serializedVersion: 2
  m_Modification:
    m_TransformParent: {fileID: 0}
    m_Modifications:
    - target: {fileID: 2430706320030319410, guid: 1bb2996f17549e346ad47b3221430a73,
        type: 3}
      propertyPath: m_LocalPosition.z
      value: 3.01
      objectReference: {fileID: 0}
    - target: {fileID: 4094492270647648994, guid: 1bb2996f17549e346ad47b3221430a73,
        type: 3}
      propertyPath: m_LocalPosition.x
      value: 8.89
      objectReference: {fileID: 0}
    - target: {fileID: 4094492270647648994, guid: 1bb2996f17549e346ad47b3221430a73,
        type: 3}
      propertyPath: m_LocalPosition.y
      value: 0.8545606
      objectReference: {fileID: 0}
    - target: {fileID: 4094492270647648994, guid: 1bb2996f17549e346ad47b3221430a73,
        type: 3}
      propertyPath: m_LocalPosition.z
      value: -29.61
      objectReference: {fileID: 0}
    - target: {fileID: 4094492270647648994, guid: 1bb2996f17549e346ad47b3221430a73,
        type: 3}
      propertyPath: m_LocalRotation.x
      value: -0
      objectReference: {fileID: 0}
    - target: {fileID: 4094492270647648994, guid: 1bb2996f17549e346ad47b3221430a73,
        type: 3}
      propertyPath: m_LocalRotation.y
      value: -0.22227435
      objectReference: {fileID: 0}
    - target: {fileID: 4094492270647648994, guid: 1bb2996f17549e346ad47b3221430a73,
        type: 3}
      propertyPath: m_LocalRotation.z
      value: -0
      objectReference: {fileID: 0}
    - target: {fileID: 4094492270647648994, guid: 1bb2996f17549e346ad47b3221430a73,
        type: 3}
      propertyPath: m_LocalRotation.w
      value: 0.97498417
      objectReference: {fileID: 0}
    - target: {fileID: 4094492270647648994, guid: 1bb2996f17549e346ad47b3221430a73,
        type: 3}
      propertyPath: m_RootOrder
      value: 5
      objectReference: {fileID: 0}
    - target: {fileID: 4094492270647648994, guid: 1bb2996f17549e346ad47b3221430a73,
        type: 3}
      propertyPath: m_LocalEulerAnglesHint.x
      value: 0
      objectReference: {fileID: 0}
    - target: {fileID: 4094492270647648994, guid: 1bb2996f17549e346ad47b3221430a73,
        type: 3}
      propertyPath: m_LocalEulerAnglesHint.y
      value: -25.685001
      objectReference: {fileID: 0}
    - target: {fileID: 4094492270647648994, guid: 1bb2996f17549e346ad47b3221430a73,
        type: 3}
      propertyPath: m_LocalEulerAnglesHint.z
      value: 0
      objectReference: {fileID: 0}
    - target: {fileID: 4094492270647648995, guid: 1bb2996f17549e346ad47b3221430a73,
        type: 3}
      propertyPath: m_Name
      value: Portal (1)
      objectReference: {fileID: 0}
    - target: {fileID: 6858003394709560405, guid: 1bb2996f17549e346ad47b3221430a73,
        type: 3}
      propertyPath: sceneToLoad
      value: 0
      objectReference: {fileID: 0}
    - target: {fileID: 6858003394709560405, guid: 1bb2996f17549e346ad47b3221430a73,
        type: 3}
      propertyPath: destination
      value: 1
      objectReference: {fileID: 0}
    m_RemovedComponents: []
  m_SourcePrefab: {fileID: 100100000, guid: 1bb2996f17549e346ad47b3221430a73, type: 3}
--- !u!1 &1623527701
GameObject:
  m_ObjectHideFlags: 0
  m_CorrespondingSourceObject: {fileID: 0}
  m_PrefabInstance: {fileID: 0}
  m_PrefabAsset: {fileID: 0}
  serializedVersion: 6
  m_Component:
  - component: {fileID: 1623527702}
  m_Layer: 0
  m_Name: Environment
  m_TagString: Untagged
  m_Icon: {fileID: 0}
  m_NavMeshLayer: 0
  m_StaticEditorFlags: 0
  m_IsActive: 1
--- !u!4 &1623527702
Transform:
  m_ObjectHideFlags: 0
  m_CorrespondingSourceObject: {fileID: 0}
  m_PrefabInstance: {fileID: 0}
  m_PrefabAsset: {fileID: 0}
  m_GameObject: {fileID: 1623527701}
  m_LocalRotation: {x: 0, y: 0, z: 0, w: 1}
  m_LocalPosition: {x: 0, y: 0, z: 0}
  m_LocalScale: {x: 1, y: 1, z: 1}
  m_Children:
  - {fileID: 1784917198}
  - {fileID: 1138835704}
  - {fileID: 229732101}
  - {fileID: 1637208905}
  - {fileID: 483215367}
  - {fileID: 1684034169}
  - {fileID: 1419817162}
  - {fileID: 136527855}
  m_Father: {fileID: 0}
  m_RootOrder: 3
  m_LocalEulerAnglesHint: {x: 0, y: 0, z: 0}
--- !u!4 &1637208905 stripped
Transform:
  m_CorrespondingSourceObject: {fileID: 416864, guid: d66c89601ce96d4419ce36a4dce3c401,
    type: 3}
  m_PrefabInstance: {fileID: 1728224847}
  m_PrefabAsset: {fileID: 0}
--- !u!4 &1684034169 stripped
Transform:
  m_CorrespondingSourceObject: {fileID: 416864, guid: d66c89601ce96d4419ce36a4dce3c401,
    type: 3}
  m_PrefabInstance: {fileID: 2073517131}
  m_PrefabAsset: {fileID: 0}
--- !u!1001 &1728224847
PrefabInstance:
  m_ObjectHideFlags: 0
  serializedVersion: 2
  m_Modification:
    m_TransformParent: {fileID: 1623527702}
    m_Modifications:
    - target: {fileID: 130724, guid: d66c89601ce96d4419ce36a4dce3c401, type: 3}
      propertyPath: m_Name
      value: SM_Bld_Fence_02 (3)
      objectReference: {fileID: 0}
    - target: {fileID: 416864, guid: d66c89601ce96d4419ce36a4dce3c401, type: 3}
      propertyPath: m_LocalPosition.x
      value: 3.6499991
      objectReference: {fileID: 0}
    - target: {fileID: 416864, guid: d66c89601ce96d4419ce36a4dce3c401, type: 3}
      propertyPath: m_LocalPosition.y
      value: -0.100000024
      objectReference: {fileID: 0}
    - target: {fileID: 416864, guid: d66c89601ce96d4419ce36a4dce3c401, type: 3}
      propertyPath: m_LocalPosition.z
      value: 24.109999
      objectReference: {fileID: 0}
    - target: {fileID: 416864, guid: d66c89601ce96d4419ce36a4dce3c401, type: 3}
      propertyPath: m_LocalRotation.x
      value: -0
      objectReference: {fileID: 0}
    - target: {fileID: 416864, guid: d66c89601ce96d4419ce36a4dce3c401, type: 3}
      propertyPath: m_LocalRotation.y
      value: -0.75270104
      objectReference: {fileID: 0}
    - target: {fileID: 416864, guid: d66c89601ce96d4419ce36a4dce3c401, type: 3}
      propertyPath: m_LocalRotation.z
      value: -0
      objectReference: {fileID: 0}
    - target: {fileID: 416864, guid: d66c89601ce96d4419ce36a4dce3c401, type: 3}
      propertyPath: m_LocalRotation.w
      value: 0.65836257
      objectReference: {fileID: 0}
    - target: {fileID: 416864, guid: d66c89601ce96d4419ce36a4dce3c401, type: 3}
      propertyPath: m_RootOrder
      value: 3
      objectReference: {fileID: 0}
    - target: {fileID: 416864, guid: d66c89601ce96d4419ce36a4dce3c401, type: 3}
      propertyPath: m_LocalEulerAnglesHint.x
      value: 0
      objectReference: {fileID: 0}
    - target: {fileID: 416864, guid: d66c89601ce96d4419ce36a4dce3c401, type: 3}
      propertyPath: m_LocalEulerAnglesHint.y
      value: -97.65
      objectReference: {fileID: 0}
    - target: {fileID: 416864, guid: d66c89601ce96d4419ce36a4dce3c401, type: 3}
      propertyPath: m_LocalEulerAnglesHint.z
      value: 0
      objectReference: {fileID: 0}
    m_RemovedComponents: []
  m_SourcePrefab: {fileID: 100100000, guid: d66c89601ce96d4419ce36a4dce3c401, type: 3}
--- !u!4 &1784917198 stripped
Transform:
  m_CorrespondingSourceObject: {fileID: 416864, guid: d66c89601ce96d4419ce36a4dce3c401,
    type: 3}
  m_PrefabInstance: {fileID: 1176955254}
  m_PrefabAsset: {fileID: 0}
--- !u!1001 &2073517131
PrefabInstance:
  m_ObjectHideFlags: 0
  serializedVersion: 2
  m_Modification:
    m_TransformParent: {fileID: 1623527702}
    m_Modifications:
    - target: {fileID: 130724, guid: d66c89601ce96d4419ce36a4dce3c401, type: 3}
      propertyPath: m_Name
      value: SM_Bld_Fence_02 (5)
      objectReference: {fileID: 0}
    - target: {fileID: 416864, guid: d66c89601ce96d4419ce36a4dce3c401, type: 3}
      propertyPath: m_LocalPosition.x
      value: 6.426067
      objectReference: {fileID: 0}
    - target: {fileID: 416864, guid: d66c89601ce96d4419ce36a4dce3c401, type: 3}
      propertyPath: m_LocalPosition.y
      value: 0.100000024
      objectReference: {fileID: 0}
    - target: {fileID: 416864, guid: d66c89601ce96d4419ce36a4dce3c401, type: 3}
      propertyPath: m_LocalPosition.z
      value: -31.292143
      objectReference: {fileID: 0}
    - target: {fileID: 416864, guid: d66c89601ce96d4419ce36a4dce3c401, type: 3}
      propertyPath: m_LocalRotation.x
      value: -0
      objectReference: {fileID: 0}
    - target: {fileID: 416864, guid: d66c89601ce96d4419ce36a4dce3c401, type: 3}
      propertyPath: m_LocalRotation.y
      value: -0.80858755
      objectReference: {fileID: 0}
    - target: {fileID: 416864, guid: d66c89601ce96d4419ce36a4dce3c401, type: 3}
      propertyPath: m_LocalRotation.z
      value: -0
      objectReference: {fileID: 0}
    - target: {fileID: 416864, guid: d66c89601ce96d4419ce36a4dce3c401, type: 3}
      propertyPath: m_LocalRotation.w
      value: 0.58837587
      objectReference: {fileID: 0}
    - target: {fileID: 416864, guid: d66c89601ce96d4419ce36a4dce3c401, type: 3}
      propertyPath: m_RootOrder
      value: 5
      objectReference: {fileID: 0}
    - target: {fileID: 416864, guid: d66c89601ce96d4419ce36a4dce3c401, type: 3}
      propertyPath: m_LocalEulerAnglesHint.x
      value: 0
      objectReference: {fileID: 0}
    - target: {fileID: 416864, guid: d66c89601ce96d4419ce36a4dce3c401, type: 3}
      propertyPath: m_LocalEulerAnglesHint.y
      value: -107.91601
      objectReference: {fileID: 0}
    - target: {fileID: 416864, guid: d66c89601ce96d4419ce36a4dce3c401, type: 3}
      propertyPath: m_LocalEulerAnglesHint.z
      value: 0
      objectReference: {fileID: 0}
    m_RemovedComponents: []
  m_SourcePrefab: {fileID: 100100000, guid: d66c89601ce96d4419ce36a4dce3c401, type: 3}
--- !u!1 &2096776832
GameObject:
  m_ObjectHideFlags: 0
  m_CorrespondingSourceObject: {fileID: 0}
  m_PrefabInstance: {fileID: 0}
  m_PrefabAsset: {fileID: 0}
  serializedVersion: 6
  m_Component:
  - component: {fileID: 2096776835}
  - component: {fileID: 2096776834}
  - component: {fileID: 2096776833}
  m_Layer: 0
  m_Name: Main Camera
  m_TagString: MainCamera
  m_Icon: {fileID: 0}
  m_NavMeshLayer: 0
  m_StaticEditorFlags: 0
  m_IsActive: 1
--- !u!81 &2096776833
AudioListener:
  m_ObjectHideFlags: 0
  m_CorrespondingSourceObject: {fileID: 0}
  m_PrefabInstance: {fileID: 0}
  m_PrefabAsset: {fileID: 0}
  m_GameObject: {fileID: 2096776832}
  m_Enabled: 1
--- !u!20 &2096776834
Camera:
  m_ObjectHideFlags: 0
  m_CorrespondingSourceObject: {fileID: 0}
  m_PrefabInstance: {fileID: 0}
  m_PrefabAsset: {fileID: 0}
  m_GameObject: {fileID: 2096776832}
  m_Enabled: 1
  serializedVersion: 2
  m_ClearFlags: 1
  m_BackGroundColor: {r: 0.19215687, g: 0.3019608, b: 0.4745098, a: 0}
  m_projectionMatrixMode: 1
  m_GateFitMode: 2
  m_FOVAxisMode: 0
  m_SensorSize: {x: 36, y: 24}
  m_LensShift: {x: 0, y: 0}
  m_FocalLength: 50
  m_NormalizedViewPortRect:
    serializedVersion: 2
    x: 0
    y: 0
    width: 1
    height: 1
  near clip plane: 0.3
  far clip plane: 1000
  field of view: 60
  orthographic: 0
  orthographic size: 5
  m_Depth: -1
  m_CullingMask:
    serializedVersion: 2
    m_Bits: 4294967295
  m_RenderingPath: -1
  m_TargetTexture: {fileID: 0}
  m_TargetDisplay: 0
  m_TargetEye: 3
  m_HDR: 1
  m_AllowMSAA: 1
  m_AllowDynamicResolution: 0
  m_ForceIntoRT: 0
  m_OcclusionCulling: 1
  m_StereoConvergence: 10
  m_StereoSeparation: 0.022
--- !u!4 &2096776835
Transform:
  m_ObjectHideFlags: 0
  m_CorrespondingSourceObject: {fileID: 0}
  m_PrefabInstance: {fileID: 0}
  m_PrefabAsset: {fileID: 0}
  m_GameObject: {fileID: 2096776832}
  m_LocalRotation: {x: 0, y: 0, z: 0, w: 1}
  m_LocalPosition: {x: 0, y: 1, z: -10}
  m_LocalScale: {x: 1, y: 1, z: 1}
  m_Children: []
  m_Father: {fileID: 0}
  m_RootOrder: 0
  m_LocalEulerAnglesHint: {x: 0, y: 0, z: 0}
--- !u!1001 &9220260885996467197
PrefabInstance:
  m_ObjectHideFlags: 0
  serializedVersion: 2
  m_Modification:
    m_TransformParent: {fileID: 0}
    m_Modifications:
    - target: {fileID: 2430706320030319410, guid: 1bb2996f17549e346ad47b3221430a73,
        type: 3}
      propertyPath: m_LocalPosition.z
      value: 3.01
      objectReference: {fileID: 0}
    - target: {fileID: 4094492270647648994, guid: 1bb2996f17549e346ad47b3221430a73,
        type: 3}
      propertyPath: m_LocalPosition.x
      value: 1.1781945
      objectReference: {fileID: 0}
    - target: {fileID: 4094492270647648994, guid: 1bb2996f17549e346ad47b3221430a73,
        type: 3}
      propertyPath: m_LocalPosition.y
      value: 0.8545606
      objectReference: {fileID: 0}
    - target: {fileID: 4094492270647648994, guid: 1bb2996f17549e346ad47b3221430a73,
        type: 3}
      propertyPath: m_LocalPosition.z
      value: 26.029469
      objectReference: {fileID: 0}
    - target: {fileID: 4094492270647648994, guid: 1bb2996f17549e346ad47b3221430a73,
        type: 3}
      propertyPath: m_LocalRotation.x
      value: -0
      objectReference: {fileID: 0}
    - target: {fileID: 4094492270647648994, guid: 1bb2996f17549e346ad47b3221430a73,
        type: 3}
      propertyPath: m_LocalRotation.y
      value: 1
      objectReference: {fileID: 0}
    - target: {fileID: 4094492270647648994, guid: 1bb2996f17549e346ad47b3221430a73,
        type: 3}
      propertyPath: m_LocalRotation.z
      value: -0
      objectReference: {fileID: 0}
    - target: {fileID: 4094492270647648994, guid: 1bb2996f17549e346ad47b3221430a73,
        type: 3}
      propertyPath: m_LocalRotation.w
      value: 0
      objectReference: {fileID: 0}
    - target: {fileID: 4094492270647648994, guid: 1bb2996f17549e346ad47b3221430a73,
        type: 3}
      propertyPath: m_RootOrder
      value: 4
      objectReference: {fileID: 0}
    - target: {fileID: 4094492270647648994, guid: 1bb2996f17549e346ad47b3221430a73,
        type: 3}
      propertyPath: m_LocalEulerAnglesHint.x
      value: 0
      objectReference: {fileID: 0}
    - target: {fileID: 4094492270647648994, guid: 1bb2996f17549e346ad47b3221430a73,
        type: 3}
      propertyPath: m_LocalEulerAnglesHint.y
      value: 0
      objectReference: {fileID: 0}
    - target: {fileID: 4094492270647648994, guid: 1bb2996f17549e346ad47b3221430a73,
        type: 3}
      propertyPath: m_LocalEulerAnglesHint.z
      value: 0
      objectReference: {fileID: 0}
    - target: {fileID: 4094492270647648995, guid: 1bb2996f17549e346ad47b3221430a73,
        type: 3}
      propertyPath: m_Name
      value: Portal
      objectReference: {fileID: 0}
    - target: {fileID: 6858003394709560405, guid: 1bb2996f17549e346ad47b3221430a73,
        type: 3}
      propertyPath: sceneToLoad
      value: 0
      objectReference: {fileID: 0}
    m_RemovedComponents: []
  m_SourcePrefab: {fileID: 100100000, guid: 1bb2996f17549e346ad47b3221430a73, type: 3}
