%YAML 1.1
%TAG !u! tag:unity3d.com,2011:
--- !u!1001 &1684036707289847073
PrefabInstance:
  m_ObjectHideFlags: 0
  serializedVersion: 2
  m_Modification:
    m_TransformParent: {fileID: 0}
    m_Modifications:
    - target: {fileID: 1989671624765401230, guid: 0f8e2c6df17df7b4b8a7d40e507f328a,
        type: 3}
      propertyPath: characterClass
      value: 3
      objectReference: {fileID: 0}
    - target: {fileID: 6923110452866353393, guid: 0f8e2c6df17df7b4b8a7d40e507f328a,
        type: 3}
      propertyPath: defaultWeapon
      value: 
      objectReference: {fileID: 11400000, guid: 81854dc215062b049bdf983185975630,
        type: 2}
    - target: {fileID: 7917459858871296727, guid: 0f8e2c6df17df7b4b8a7d40e507f328a,
        type: 3}
      propertyPath: m_Materials.Array.data[0]
      value: 
      objectReference: {fileID: 2100000, guid: bfbe2e8b331e2cc42be1591f949c0e41, type: 2}
    - target: {fileID: 8462203423714383264, guid: 0f8e2c6df17df7b4b8a7d40e507f328a,
        type: 3}
      propertyPath: m_LocalPosition.x
      value: 0
      objectReference: {fileID: 0}
    - target: {fileID: 8462203423714383264, guid: 0f8e2c6df17df7b4b8a7d40e507f328a,
        type: 3}
      propertyPath: m_LocalPosition.y
      value: 0
      objectReference: {fileID: 0}
    - target: {fileID: 8462203423714383264, guid: 0f8e2c6df17df7b4b8a7d40e507f328a,
        type: 3}
      propertyPath: m_LocalPosition.z
      value: 0
      objectReference: {fileID: 0}
    - target: {fileID: 8462203423714383264, guid: 0f8e2c6df17df7b4b8a7d40e507f328a,
        type: 3}
      propertyPath: m_LocalRotation.x
      value: 0
      objectReference: {fileID: 0}
    - target: {fileID: 8462203423714383264, guid: 0f8e2c6df17df7b4b8a7d40e507f328a,
        type: 3}
      propertyPath: m_LocalRotation.y
      value: 0
      objectReference: {fileID: 0}
    - target: {fileID: 8462203423714383264, guid: 0f8e2c6df17df7b4b8a7d40e507f328a,
        type: 3}
      propertyPath: m_LocalRotation.z
      value: 0
      objectReference: {fileID: 0}
    - target: {fileID: 8462203423714383264, guid: 0f8e2c6df17df7b4b8a7d40e507f328a,
        type: 3}
      propertyPath: m_LocalRotation.w
      value: 1
      objectReference: {fileID: 0}
    - target: {fileID: 8462203423714383264, guid: 0f8e2c6df17df7b4b8a7d40e507f328a,
        type: 3}
      propertyPath: m_RootOrder
      value: 0
      objectReference: {fileID: 0}
    - target: {fileID: 8462203423714383264, guid: 0f8e2c6df17df7b4b8a7d40e507f328a,
        type: 3}
      propertyPath: m_LocalEulerAnglesHint.x
      value: 0
      objectReference: {fileID: 0}
    - target: {fileID: 8462203423714383264, guid: 0f8e2c6df17df7b4b8a7d40e507f328a,
        type: 3}
      propertyPath: m_LocalEulerAnglesHint.y
      value: 0
      objectReference: {fileID: 0}
    - target: {fileID: 8462203423714383264, guid: 0f8e2c6df17df7b4b8a7d40e507f328a,
        type: 3}
      propertyPath: m_LocalEulerAnglesHint.z
      value: 0
      objectReference: {fileID: 0}
    - target: {fileID: 8462203423714383278, guid: 0f8e2c6df17df7b4b8a7d40e507f328a,
        type: 3}
      propertyPath: m_Name
      value: Archer
      objectReference: {fileID: 0}
    - target: {fileID: 8462203423714383278, guid: 0f8e2c6df17df7b4b8a7d40e507f328a,
        type: 3}
      propertyPath: m_TagString
      value: Untagged
      objectReference: {fileID: 0}
    m_RemovedComponents: []
  m_SourcePrefab: {fileID: 100100000, guid: 0f8e2c6df17df7b4b8a7d40e507f328a, type: 3}
