%YAML 1.1
%TAG !u! tag:unity3d.com,2011:
--- !u!1001 &6321743667433841515
PrefabInstance:
  m_ObjectHideFlags: 0
  serializedVersion: 2
  m_Modification:
    m_TransformParent: {fileID: 0}
    m_Modifications:
    - target: {fileID: 2302457091073469191, guid: 69d1b1037536b504884c93bb73d662db,
        type: 3}
      propertyPath: ColorModule.gradient.maxGradient.key0.r
      value: 0.6698113
      objectReference: {fileID: 0}
    - target: {fileID: 2302457091073469191, guid: 69d1b1037536b504884c93bb73d662db,
        type: 3}
      propertyPath: ColorModule.gradient.maxGradient.key0.g
      value: 0.026497245
      objectReference: {fileID: 0}
    - target: {fileID: 2302457091073469191, guid: 69d1b1037536b504884c93bb73d662db,
        type: 3}
      propertyPath: ColorModule.gradient.maxGradient.key0.b
      value: 0
      objectReference: {fileID: 0}
    - target: {fileID: 2302457091073469191, guid: 69d1b1037536b504884c93bb73d662db,
        type: 3}
      propertyPath: ColorModule.gradient.maxGradient.ctime1
      value: 65535
      objectReference: {fileID: 0}
    - target: {fileID: 2302457091073469191, guid: 69d1b1037536b504884c93bb73d662db,
        type: 3}
      propertyPath: ColorModule.gradient.maxGradient.key1.r
      value: 1
      objectReference: {fileID: 0}
    - target: {fileID: 2302457091073469191, guid: 69d1b1037536b504884c93bb73d662db,
        type: 3}
      propertyPath: ColorModule.gradient.maxGradient.key1.g
      value: 1
      objectReference: {fileID: 0}
    - target: {fileID: 2302457091073469191, guid: 69d1b1037536b504884c93bb73d662db,
        type: 3}
      propertyPath: ColorModule.gradient.maxGradient.key1.b
      value: 1
      objectReference: {fileID: 0}
    - target: {fileID: 2302457091073469191, guid: 69d1b1037536b504884c93bb73d662db,
        type: 3}
      propertyPath: ColorModule.gradient.maxGradient.m_NumColorKeys
      value: 2
      objectReference: {fileID: 0}
    - target: {fileID: 2302457091073469191, guid: 69d1b1037536b504884c93bb73d662db,
        type: 3}
      propertyPath: ColorModule.gradient.maxGradient.key1.a
      value: 0.75686276
      objectReference: {fileID: 0}
    - target: {fileID: 2302457091092795123, guid: 69d1b1037536b504884c93bb73d662db,
        type: 3}
      propertyPath: m_LocalPosition.x
      value: 0
      objectReference: {fileID: 0}
    - target: {fileID: 2302457091092795123, guid: 69d1b1037536b504884c93bb73d662db,
        type: 3}
      propertyPath: m_LocalPosition.y
      value: 0
      objectReference: {fileID: 0}
    - target: {fileID: 2302457091092795123, guid: 69d1b1037536b504884c93bb73d662db,
        type: 3}
      propertyPath: m_LocalPosition.z
      value: 0
      objectReference: {fileID: 0}
    - target: {fileID: 2302457091092795123, guid: 69d1b1037536b504884c93bb73d662db,
        type: 3}
      propertyPath: m_LocalRotation.x
      value: 0
      objectReference: {fileID: 0}
    - target: {fileID: 2302457091092795123, guid: 69d1b1037536b504884c93bb73d662db,
        type: 3}
      propertyPath: m_LocalRotation.y
      value: 0
      objectReference: {fileID: 0}
    - target: {fileID: 2302457091092795123, guid: 69d1b1037536b504884c93bb73d662db,
        type: 3}
      propertyPath: m_LocalRotation.z
      value: 0
      objectReference: {fileID: 0}
    - target: {fileID: 2302457091092795123, guid: 69d1b1037536b504884c93bb73d662db,
        type: 3}
      propertyPath: m_LocalRotation.w
      value: 1
      objectReference: {fileID: 0}
    - target: {fileID: 2302457091092795123, guid: 69d1b1037536b504884c93bb73d662db,
        type: 3}
      propertyPath: m_RootOrder
      value: 0
      objectReference: {fileID: 0}
    - target: {fileID: 2302457091092795123, guid: 69d1b1037536b504884c93bb73d662db,
        type: 3}
      propertyPath: m_LocalEulerAnglesHint.x
      value: 0
      objectReference: {fileID: 0}
    - target: {fileID: 2302457091092795123, guid: 69d1b1037536b504884c93bb73d662db,
        type: 3}
      propertyPath: m_LocalEulerAnglesHint.y
      value: 0
      objectReference: {fileID: 0}
    - target: {fileID: 2302457091092795123, guid: 69d1b1037536b504884c93bb73d662db,
        type: 3}
      propertyPath: m_LocalEulerAnglesHint.z
      value: 0
      objectReference: {fileID: 0}
    - target: {fileID: 2302457091093092515, guid: 69d1b1037536b504884c93bb73d662db,
        type: 3}
      propertyPath: m_Name
      value: Red Impact
      objectReference: {fileID: 0}
    m_RemovedComponents: []
  m_SourcePrefab: {fileID: 100100000, guid: 69d1b1037536b504884c93bb73d662db, type: 3}
